Euro 2024 Players Analysis
…
setwd("C:/Users/hp/Desktop/Dataset")
euro_24 <- read_csv("euro2024_players.csv")

Rows: 623 Columns: 10
── Column specification ────────────────────────────────────────────────────────
Delimiter: ","
chr (5): Name, Position, Club, Foot, Country
dbl (5): Age, Height, Caps, Goals, MarketValue

ℹ Use `spec()` to retrieve the full column specification for this data.
ℹ Specify the column types or set `show_col_types = FALSE` to quiet this message.

euro_24

# A tibble: 623 × 10
   Name        Position   Age Club  Height Foot   Caps Goals MarketValue Country
   <chr>       <chr>    <dbl> <chr>  <dbl> <chr> <dbl> <dbl>       <dbl> <chr>  
 1 Marc-André… Goalkee…    32 FC B…    187 right    40     0    28000000 Germany
 2 Manuel Neu… Goalkee…    38 Baye…    193 right   119     0     4000000 Germany
 3 Oliver Bau… Goalkee…    34 TSG …    187 right     0     0     3000000 Germany
 4 Nico Schlo… Centre-…    24 Boru…    191 left     12     0    40000000 Germany
 5 Jonathan T… Centre-…    28 Baye…    195 right    25     0    30000000 Germany
 6 Antonio Rü… Centre-…    31 Real…    190 right    69     3    25000000 Germany
 7 Waldemar A… Centre-…    27 VfB …    189 right     2     0    20000000 Germany
 8 Robin Koch  Centre-…    27 Eint…    191 right     9     0    18000000 Germany
 9 David Raum  Left-Ba…    26 RB L…    180 left     21     0    20000000 Germany
10 Maximilian… Left-Ba…    27 VfB …    180 left      4     1    17000000 Germany
# ℹ 613 more rows
…
